%YAML 1.1
%TAG !u! tag:unity3d.com,2011:
--- !u!221 &22100000
AnimatorOverrideController:
  m_ObjectHideFlags: 0
  m_CorrespondingSourceObject: {fileID: 0}
  m_PrefabInternal: {fileID: 0}
  m_Name: Zombie2
  m_Controller: {fileID: 9100000, guid: 092a4c93c9a298149841c03e6b704fe9, type: 2}
  m_Clips:
  - m_OriginalClip: {fileID: 7400000, guid: 1fa0fc6361286ba458a0ab0cbca56908, type: 2}
    m_OverrideClip: {fileID: 7400000, guid: c78f0c26602f2cf49a1c2eb5e3aeca9e, type: 2}
  - m_OriginalClip: {fileID: 7400000, guid: a34993804abb36745a0a35f44f726ea5, type: 2}
    m_OverrideClip: {fileID: 7400000, guid: 805903badabfb5641a039b103cdf056f, type: 2}
